[
    {
        "_id": "b-0",
        "_parentId": "a-0",
        "_type": "block",
        "_classes": "",
        "title": " ",
        "displayTitle": "",
        "body": "",
        "_trackingId": 1
    },
    {
        "_id": "b-1",
        "_parentId": "a-0",
        "_type": "block",
        "_classes": "",
        "title": " ",
        "displayTitle": "",
        "body": "",
        "_trackingId": 205
    },
    {
        "_id": "b-5",
        "_parentId": "a-0",
        "_type": "block",
        "_classes": "",
        "title": " ",
        "displayTitle": "",
        "body": "",
        "_trackingId": 187
    },
    {
        "_id": "b-20",
        "_parentId": "a-0",
        "_type": "block",
        "_classes": "",
        "title": " ",
        "displayTitle": "",
        "body": "",
        "_trackingId": 3
    },
    {
        "_id": "b-25",
        "_parentId": "a-100",
        "_type": "block",
        "_classes": "",
        "title": "",
        "displayTitle": "",
        "body": "",
        "_trackingId": 4
    },
    {
        "_id": "b-35",
        "_parentId": "a-100",
        "_type": "block",
        "_classes": "",
        "title": " ",
        "displayTitle": "",
        "body": "",
        "_trackingId": 6
    },
    {
        "_id": "b-40",
        "_parentId": "a-100",
        "_type": "block",
        "_classes": "",
        "title": " ",
        "displayTitle": "",
        "body": "",
        "_trackingId": 188
    },
    {
        "_id": "b-45",
        "_parentId": "a-100",
        "_type": "block",
        "_classes": "",
        "title": " ",
        "displayTitle": "",
        "body": "",
        "_trackingId": 190
    },
    {
        "_id": "b-50",
        "_parentId": "a-100",
        "_type": "block",
        "_classes": "",
        "title": " ",
        "displayTitle": "",
        "body": "",
        "_trackingId": 189
    },
    {
        "_id": "b-60",
        "_parentId": "a-100",
        "_type": "block",
        "_classes": "",
        "title": " ",
        "displayTitle": "",
        "body": "",
        "_trackingId": 8
    },
    {
        "_id": "b-65",
        "_parentId": "a-100",
        "_type": "block",
        "_classes": "",
        "title": " ",
        "displayTitle": "",
        "body": "",
        "_trackingId": 175
    },
    {
        "_id": "b-80",
        "_parentId": "a-100",
        "_type": "block",
        "_classes": "",
        "title": " ",
        "displayTitle": "",
        "body": "",
        "_trackingId": 179
    },
    {
        "_id": "b-95",
        "_parentId": "a-100",
        "_type": "block",
        "_classes": "",
        "title": " ",
        "displayTitle": "",
        "body": "",
        "_trackingId": 9
    },
    {
        "_id": "b-100",
        "_parentId": "a-200",
        "_type": "block",
        "_classes": "",
        "title": "",
        "displayTitle": "",
        "body": "",
        "_trackingId": 10
    },
    {
        "_id": "b-105",
        "_parentId": "a-200",
        "_type": "block",
        "_classes": "",
        "title": "",
        "displayTitle": "",
        "body": "",
        "_trackingId": 11
    },
    {
        "_id": "b-110",
        "_parentId": "a-200",
        "_type": "block",
        "_classes": "",
        "title": "b-100",
        "displayTitle": "",
        "body": "",
        "_trackingId": 12
    },
    {
        "_id": "b-115",
        "_parentId": "a-200",
        "_type": "block",
        "_classes": "",
        "title": "",
        "displayTitle": "",
        "body": "",
        "_trackingId": 13
    },
    {
        "_id": "b-120",
        "_parentId": "a-200",
        "_type": "block",
        "_classes": "",
        "title": "b-100",
        "displayTitle": "",
        "body": "",
        "_trackingId": 14
    },
    {
        "_id": "b-125",
        "_parentId": "a-200",
        "_type": "block",
        "_classes": "",
        "title": " ",
        "displayTitle": "",
        "body": "",
        "_trackingId": 15
    },
    {
        "_id": "b-130",
        "_parentId": "a-200",
        "_type": "block",
        "_classes": "",
        "title": " ",
        "displayTitle": "",
        "body": "",
        "_trackingId": 181
    },
    {
        "_id": "b-135",
        "_parentId": "a-200",
        "_type": "block",
        "_classes": "",
        "title": " ",
        "displayTitle": "",
        "body": "",
        "_trackingId": 194
    },
    {
        "_id": "b-140",
        "_parentId": "a-200",
        "_type": "block",
        "_classes": "",
        "title": " ",
        "displayTitle": "",
        "body": "",
        "_trackingId": 195
    },
    {
        "_id": "b-145",
        "_parentId": "a-200",
        "_type": "block",
        "_classes": "",
        "title": " ",
        "displayTitle": "",
        "body": "",
        "_trackingId": 196
    },
    {
        "_id": "b-150",
        "_parentId": "a-200",
        "_type": "block",
        "_classes": "",
        "title": " ",
        "displayTitle": "",
        "body": "",
        "_trackingId": 197
    },
    {
        "_id": "b-199",
        "_parentId": "a-200",
        "_type": "block",
        "_classes": "",
        "title": "",
        "displayTitle": "",
        "body": "",
        "_trackingId": 17
    },
    {
        "_id": "b-300",
        "_parentId": "a-300",
        "_type": "block",
        "_classes": "",
        "title": "",
        "displayTitle": "",
        "body": "",
        "_trackingId": 18
    },
    {
        "_id": "b-315",
        "_parentId": "a-300",
        "_type": "block",
        "_classes": "",
        "title": " ",
        "displayTitle": "",
        "body": "",
        "_trackingId": 21
    },
    {
        "_id": "b-320",
        "_parentId": "a-300",
        "_type": "block",
        "_classes": "",
        "title": "",
        "displayTitle": "",
        "body": "",
        "_trackingId": 22
    },
    {
        "_id": "b-330",
        "_parentId": "a-300",
        "_type": "block",
        "_classes": "",
        "title": "",
        "displayTitle": "",
        "body": "",
        "_trackingId": 199
    },
    {
        "_id": "b-340a",
        "_parentId": "a-340a",
        "_type": "block",
        "_classes": "",
        "title": "",
        "displayTitle": "",
        "body": "",
        "_trackingId": 200
    },
    {
        "_id": "b-341a",
        "_parentId": "a-340a",
        "_type": "block",
        "_classes": "",
        "title": "",
        "displayTitle": "",
        "body": "",
        "_trackingId": 201
    },
    {
        "_id": "b-380",
        "_parentId": "a-300",
        "_type": "block",
        "_classes": "",
        "title": "",
        "displayTitle": "",
        "body": "",
        "_trackingId": 192
    },
    {
        "_id": "b-395",
        "_parentId": "a-300",
        "_type": "block",
        "_classes": "",
        "title": "",
        "displayTitle": "",
        "body": "",
        "_trackingId": 32
    },
    {
        "_id": "b-500",
        "_parentId": "a-400",
        "_type": "block",
        "_classes": "",
        "title": " ",
        "displayTitle": "",
        "body": "",
        "_trackingId": 33
    },
    {
        "_id": "b-505",
        "_parentId": "a-400",
        "_type": "block",
        "_classes": "",
        "title": "",
        "displayTitle": "",
        "body": "",
        "_trackingId": 34
    },
    {
        "_id": "b-510",
        "_parentId": "a-400",
        "_type": "block",
        "_classes": "",
        "title": " ",
        "displayTitle": "",
        "body": "",
        "_trackingId": 35
    },
    {
        "_id": "b-520",
        "_parentId": "a-400a",
        "_type": "block",
        "_classes": "",
        "title": " ",
        "displayTitle": "",
        "body": "",
        "_trackingId": 37
    },
    {
        "_id": "b-525",
        "_parentId": "a-400a",
        "_type": "block",
        "_classes": "",
        "title": " ",
        "displayTitle": "",
        "body": "",
        "_trackingId": 38
    },
    {
        "_id": "b-530",
        "_parentId": "a-400a",
        "_type": "block",
        "_classes": "",
        "title": " ",
        "displayTitle": "",
        "body": "",
        "_trackingId": 39
    },
    {
        "_id": "b-535",
        "_parentId": "a-400a",
        "_type": "block",
        "_classes": "",
        "title": "",
        "displayTitle": "",
        "body": "",
        "_trackingId": 40
    },
    {
        "_id": "b-540",
        "_parentId": "a-400b",
        "_type": "block",
        "_classes": "",
        "title": " ",
        "displayTitle": "",
        "body": "",
        "_trackingId": 41
    },
    {
        "_id": "b-545",
        "_parentId": "a-400b",
        "_type": "block",
        "_classes": "",
        "title": " ",
        "displayTitle": "",
        "body": "",
        "_trackingId": 42
    },
    {
        "_id": "b-550",
        "_parentId": "a-400b",
        "_type": "block",
        "_classes": "",
        "title": " ",
        "displayTitle": "",
        "body": "",
        "_trackingId": 43
    },
    {
        "_id": "b-560",
        "_parentId": "a-400b",
        "_type": "block",
        "_classes": "",
        "title": "",
        "displayTitle": "",
        "body": "",
        "_trackingId": 45
    },
    {
        "_id": "b-565",
        "_parentId": "a-400b",
        "_type": "block",
        "_classes": "",
        "title": "",
        "displayTitle": "",
        "body": "",
        "_trackingId": 46
    },
    {
        "_id": "b-575",
        "_parentId": "a-400b",
        "_type": "block",
        "_classes": "",
        "title": " ",
        "displayTitle": "",
        "body": "",
        "_trackingId": 47
    },
    {
        "_id": "b-580",
        "_parentId": "a-400b",
        "_type": "block",
        "_classes": "",
        "title": " ",
        "displayTitle": "",
        "body": "",
        "_trackingId": 183
    },
    {
        "_id": "b-585",
        "_parentId": "a-400b",
        "_type": "block",
        "_classes": "",
        "title": " ",
        "displayTitle": "",
        "body": "",
        "_trackingId": 184
    },
    {
        "_id": "b-590",
        "_parentId": "a-400b",
        "_type": "block",
        "_classes": "",
        "title": " ",
        "displayTitle": "",
        "body": "",
        "_trackingId": 49
    },
    {
        "_id": "b-595",
        "_parentId": "a-400b",
        "_type": "block",
        "_classes": "",
        "title": " ",
        "displayTitle": "",
        "body": "",
        "_trackingId": 185
    },
    {
        "_id": "b-599",
        "_parentId": "a-400b",
        "_type": "block",
        "_classes": "",
        "title": " ",
        "displayTitle": "",
        "body": "",
        "_trackingId": 186
    },
    {
        "_id": "b-700",
        "_parentId": "a-500",
        "_type": "block",
        "_classes": "",
        "title": " ",
        "displayTitle": "",
        "body": "",
        "_trackingId": 50
    },
    {
        "_id": "b-705",
        "_parentId": "a-500",
        "_type": "block",
        "_classes": "",
        "title": " ",
        "displayTitle": "",
        "body": "",
        "_trackingId": 51
    },
    {
        "_id": "b-710",
        "_parentId": "a-500",
        "_type": "block",
        "_classes": "",
        "title": " ",
        "displayTitle": "",
        "body": "",
        "_trackingId": 52
    },
    {
        "_id": "b-720",
        "_parentId": "a-500",
        "_type": "block",
        "_classes": "",
        "title": " ",
        "displayTitle": "",
        "body": "",
        "_trackingId": 53
    },
    {
        "_id": "b-725",
        "_parentId": "a-500",
        "_type": "block",
        "_classes": "",
        "title": " ",
        "displayTitle": "",
        "body": "",
        "_trackingId": 202
    },
    {
        "_id": "b-730",
        "_parentId": "a-500",
        "_type": "block",
        "_classes": "",
        "title": " ",
        "displayTitle": "",
        "body": "",
        "_trackingId": 61
    },
    {
        "_id": "b-740",
        "_parentId": "a-500",
        "_type": "block",
        "_classes": "",
        "title": " ",
        "displayTitle": "",
        "body": "",
        "_trackingId": 198
    },
    {
        "_id": "b-750",
        "_parentId": "a-500",
        "_type": "block",
        "_classes": "",
        "title": " ",
        "displayTitle": "",
        "body": "",
        "_trackingId": 203
    },
    {
        "_id": "b-755",
        "_parentId": "a-500",
        "_type": "block",
        "_classes": "",
        "title": " ",
        "displayTitle": "",
        "body": "",
        "_trackingId": 204
    },
    {
        "_id": "b-795",
        "_parentId": "a-500",
        "_type": "block",
        "_classes": "",
        "title": " ",
        "displayTitle": "",
        "body": "",
        "_trackingId": 62
    },
    {
        "_id": "b-1100",
        "_parentId": "a-700",
        "_type": "block",
        "_classes": "",
        "title": " ",
        "displayTitle": "",
        "body": "",
        "_trackingId": 65
    },
    {
        "_id": "b-1105",
        "_parentId": "a-700",
        "_type": "block",
        "_classes": "",
        "title": " ",
        "displayTitle": "",
        "body": "",
        "_trackingId": 66
    },
    {
        "_id": "b-1110",
        "_parentId": "a-700",
        "_type": "block",
        "_classes": "",
        "title": " ",
        "displayTitle": "",
        "body": "",
        "_trackingId": 67
    },
    {
        "_id": "b-1115",
        "_parentId": "a-700",
        "_type": "block",
        "_classes": "",
        "title": " ",
        "displayTitle": "",
        "body": "",
        "_trackingId": 68
    },
    {
        "_id": "b-1120",
        "_parentId": "a-700",
        "_type": "block",
        "_classes": "",
        "title": " ",
        "displayTitle": "",
        "body": "",
        "_trackingId": 69
    },
    {
        "_id": "b-1195",
        "_parentId": "a-700",
        "_type": "block",
        "_classes": "",
        "title": " ",
        "displayTitle": "",
        "body": "",
        "_trackingId": 70
    }
]